---
primary_ipv4: 185.73.44.181
primary_ipv6: 2001:ba8:0:2cb5::1
ipv4_netmask: 255.255.252.0
ipv4_gateway: 185.73.44.1
ipv6_gateway: fe80::fcff:ffff:feff:ffff
fw_interface_types: [eth]
primary_network_interface: eth0
service_name: alioth-lists-archive.debian.net
service_aliases: []
